Async_fifo/async_fifo_tb.vcd
$date
	Fri Nov 14 23:13:10 2025
$end
$version
	Icarus Verilog
$end
$timescale
	1s
$end
$scope module async_fifo_tb $end
$var wire 1 ! w_full $end
$var wire 1 " r_empty $end
$var wire 32 # r_data [31:0] $end
$var parameter 32 $ r_clk_freq $end
$var parameter 32 % w_clk_freq $end
$var reg 1 & m_rst $end
$var reg 1 ' r_clk $end
$var reg 1 ( r_en $end
$var reg 1 ) r_rst $end
$var reg 1 * w_clk $end
$var reg 32 + w_data [31:0] $end
$var reg 1 , w_en $end
$var reg 1 - w_rst $end
$scope module u_async_fifo $end
$var wire 1 & m_rst $end
$var wire 1 ' r_clk $end
$var wire 1 ( r_en $end
$var wire 1 ) r_rst $end
$var wire 1 * w_clk $end
$var wire 32 . w_data [31:0] $end
$var wire 1 , w_en $end
$var wire 1 - w_rst $end
$var wire 7 / w_ptr_g_sync [6:0] $end
$var wire 7 0 w_ptr_g [6:0] $end
$var wire 1 ! w_full $end
$var wire 6 1 w_addr [5:0] $end
$var wire 7 2 r_ptr_g_sync [6:0] $end
$var wire 7 3 r_ptr_g [6:0] $end
$var wire 1 " r_empty $end
$var wire 32 4 r_data [31:0] $end
$var wire 6 5 r_addr [5:0] $end
$scope module r_synch $end
$var wire 1 ' clk $end
$var wire 7 6 data_synch [6:0] $end
$var wire 7 7 data [6:0] $end
$var reg 7 8 data_r [6:0] $end
$var reg 7 9 data_r2 [6:0] $end
$upscope $end
$scope module u_mem $end
$var wire 1 & m_rst $end
$var wire 1 ' r_clk $end
$var wire 32 : r_data [31:0] $end
$var wire 1 ; r_valid $end
$var wire 1 * w_clk $end
$var wire 32 < w_data [31:0] $end
$var wire 1 = w_valid $end
$var wire 6 > w_addr [5:0] $end
$var wire 6 ? r_addr [5:0] $end
$var parameter 32 @ DEPTH $end
$var parameter 32 A WIDTH $end
$var reg 32 B r_data_r [31:0] $end
$var integer 32 C i [31:0] $end
$upscope $end
$scope module u_r_ptr_ctrl $end
$var wire 1 ' r_clk $end
$var wire 1 ( r_en $end
$var wire 1 ) r_rst $end
$var wire 7 D w_ptr_g_sync [6:0] $end
$var wire 7 E w_ptr_b_sync [6:0] $end
$var wire 7 F r_ptr_g [6:0] $end
$var wire 1 " r_empty $end
$var wire 6 G r_addr [5:0] $end
$var reg 1 " r_empty_r $end
$var reg 7 H r_ptr_b [6:0] $end
$var reg 7 I r_ptr_b_next [6:0] $end
$scope module u_bin2gray $end
$var wire 7 J binary_format [6:0] $end
$var wire 7 K gray_format [6:0] $end
$var reg 7 L gray_format_r [6:0] $end
$upscope $end
$scope module u_gray2bin $end
$var wire 7 M binary_format [6:0] $end
$var wire 7 N gray_format [6:0] $end
$var reg 7 O binary_format_r [6:0] $end
$var integer 32 P i [31:0] $end
$upscope $end
$upscope $end
$scope module u_w_ptr_ctrl $end
$var wire 7 Q r_ptr_g_sync [6:0] $end
$var wire 1 * w_clk $end
$var wire 1 , w_en $end
$var wire 1 - w_rst $end
$var wire 7 R w_ptr_g [6:0] $end
$var wire 1 ! w_full $end
$var wire 6 S w_addr [5:0] $end
$var wire 7 T r_ptr_b_sync [6:0] $end
$var reg 1 ! w_full_r $end
$var reg 7 U w_ptr_b [6:0] $end
$var reg 7 V w_ptr_b_next [6:0] $end
$scope module u_bin2gray $end
$var wire 7 W binary_format [6:0] $end
$var wire 7 X gray_format [6:0] $end
$var reg 7 Y gray_format_r [6:0] $end
$upscope $end
$scope module u_gray2bin $end
$var wire 7 Z binary_format [6:0] $end
$var wire 7 [ gray_format [6:0] $end
$var reg 7 \ binary_format_r [6:0] $end
$var integer 32 ] i [31:0] $end
$upscope $end
$upscope $end
$scope module w_synch $end
$var wire 1 * clk $end
$var wire 7 ^ data [6:0] $end
$var wire 7 _ data_synch [6:0] $end
$var reg 7 ` data_r [6:0] $end
$var reg 7 a data_r2 [6:0] $end
$upscope $end
$upscope $end
$upscope $end
$enddefinitions $end
$comment Show the parameter values. $end
$dumpall
b100000 A
b1000000 @
b101111101011110000100000000 %
b1110010011100001110000000 $
$end
#0
$dumpvars
bx a
bx `
bx _
b0 ^
bx ]
bx \
bx [
bx Z
b0 Y
b0 X
b0 W
b1 V
b0 U
bx T
b0 S
b0 R
bx Q
bx P
bx O
bx N
bx M
b0 L
b0 K
b0 J
b1 I
b0 H
b0 G
b0 F
bx E
bx D
b1000000 C
b0 B
b0 ?
b0 >
0=
b0 <
0;
b0 :
bx 9
bx 8
b0 7
bx 6
b0 5
b0 4
b0 3
bx 2
b0 1
b0 0
bx /
b0 .
1-
0,
b0 +
0*
1)
0(
0'
1&
b0 #
0"
0!
$end
#5
b0 `
b1000000 C
1*
#10
0*
b1 +
b1 .
b1 <
#15
b11111111111111111111111111111111 P
b0 E
b0 M
b0 O
b0 /
b0 D
b0 N
b0 _
b0 a
b1000000 C
1*
#20
0*
b10 +
b10 .
b10 <
#25
b0 8
b1000000 C
1*
1'
#30
0*
b11 +
b11 .
b11 <
#35
b1000000 C
1*
#40
0*
b100 +
b100 .
b100 <
#45
b1000000 C
1*
#50
0*
b101 +
b101 .
b101 <
0'
#55
b1000000 C
1*
#60
0*
b110 +
b110 .
b110 <
#65
b1000000 C
1*
#70
0*
b111 +
b111 .
b111 <
#75
b11111111111111111111111111111111 ]
b0 T
b0 Z
b0 \
b0 2
b0 6
b0 Q
b0 [
b0 9
b1000000 C
1*
1'
#80
0*
b1000 +
b1000 .
b1000 <
#85
b1000000 C
1*
#90
0*
b1001 +
b1001 .
b1001 <
#95
b1000000 C
1*
#100
1=
0*
b1010 +
b1010 .
b1010 <
0'
1,
0)
0-
0&
#105
b1 1
b1 >
b1 S
b1 0
b1 R
b1 X
b1 ^
b1 Y
b10 V
b1 U
b1 W
1*
#110
0*
b1011 +
b1011 .
b1011 <
#115
b10 1
b10 >
b10 S
b11 V
b11 0
b11 R
b11 X
b11 ^
b11 Y
b10 U
b10 W
b1 `
1*
#120
0*
b1100 +
b1100 .
b1100 <
#125
b11 1
b11 >
b11 S
b10 0
b10 R
b10 X
b10 ^
b10 Y
b100 V
b1 E
b1 M
b1 O
b11111111111111111111111111111111 P
b11 U
b11 W
b1 /
b1 D
b1 N
b1 _
b1 a
b11 `
1"
1*
1'
#130
0*
b1101 +
b1101 .
b1101 <
#135
b100 1
b100 >
b100 S
b101 V
b110 0
b110 R
b110 X
b110 ^
b110 Y
b10 E
b10 M
b10 O
b11111111111111111111111111111111 P
b100 U
b100 W
b11 /
b11 D
b11 N
b11 _
b11 a
b10 `
1*
#140
0*
b1110 +
b1110 .
b1110 <
#145
b101 1
b101 >
b101 S
b111 0
b111 R
b111 X
b111 ^
b111 Y
b110 V
b11 E
b11 M
b11 O
b11111111111111111111111111111111 P
b101 U
b101 W
b10 /
b10 D
b10 N
b10 _
b10 a
b110 `
1*
#150
0*
b1111 +
b1111 .
b1111 <
0'
#155
b110 1
b110 >
b110 S
b111 V
b101 0
b101 R
b101 X
b101 ^
b101 Y
b100 E
b100 M
b100 O
b11111111111111111111111111111111 P
b110 U
b110 W
b110 /
b110 D
b110 N
b110 _
b110 a
b111 `
1*
#160
0*
b10000 +
b10000 .
b10000 <
#165
b111 1
b111 >
b111 S
b100 0
b100 R
b100 X
b100 ^
b100 Y
b1000 V
b101 E
b101 M
b101 O
b11111111111111111111111111111111 P
b111 U
b111 W
b111 /
b111 D
b111 N
b111 _
b111 a
b101 `
1*
#170
0*
b10001 +
b10001 .
b10001 <
#175
b1000 1
b1000 >
b1000 S
b1001 V
b1100 0
b1100 R
b1100 X
b1100 ^
b1100 Y
b110 E
b110 M
b110 O
b11111111111111111111111111111111 P
b1000 U
b1000 W
b101 /
b101 D
b101 N
b101 _
b101 a
b100 `
0"
1*
1'
#180
0*
b10010 +
b10010 .
b10010 <
#185
b1001 1
b1001 >
b1001 S
b1101 0
b1101 R
b1101 X
b1101 ^
b1101 Y
b1010 V
b111 E
b111 M
b111 O
b11111111111111111111111111111111 P
b1001 U
b1001 W
b100 /
b100 D
b100 N
b100 _
b100 a
b1100 `
1*
#190
0*
b10011 +
b10011 .
b10011 <
#195
b1010 1
b1010 >
b1010 S
b1011 V
b1111 0
b1111 R
b1111 X
b1111 ^
b1111 Y
b1000 E
b1000 M
b1000 O
b11111111111111111111111111111111 P
b1010 U
b1010 W
b1100 /
b1100 D
b1100 N
b1100 _
b1100 a
b1101 `
1*
#200
0*
b10100 +
b10100 .
b10100 <
0'
#205
b1011 1
b1011 >
b1011 S
b1110 0
b1110 R
b1110 X
b1110 ^
b1110 Y
b1100 V
b1001 E
b1001 M
b1001 O
b11111111111111111111111111111111 P
b1011 U
b1011 W
b1101 /
b1101 D
b1101 N
b1101 _
b1101 a
b1111 `
1*
#210
0*
b10101 +
b10101 .
b10101 <
#215
b1100 1
b1100 >
b1100 S
b1101 V
b1010 0
b1010 R
b1010 X
b1010 ^
b1010 Y
b1010 E
b1010 M
b1010 O
b11111111111111111111111111111111 P
b1100 U
b1100 W
b1111 /
b1111 D
b1111 N
b1111 _
b1111 a
b1110 `
1*
#220
0*
b10110 +
b10110 .
b10110 <
#225
b1101 1
b1101 >
b1101 S
b1011 0
b1011 R
b1011 X
b1011 ^
b1011 Y
b1110 V
b1011 E
b1011 M
b1011 O
b11111111111111111111111111111111 P
b1101 U
b1101 W
b1110 /
b1110 D
b1110 N
b1110 _
b1110 a
b1010 `
1*
1'
#230
0*
b10111 +
b10111 .
b10111 <
#235
b1110 1
b1110 >
b1110 S
b1111 V
b1001 0
b1001 R
b1001 X
b1001 ^
b1001 Y
b1100 E
b1100 M
b1100 O
b11111111111111111111111111111111 P
b1110 U
b1110 W
b1010 /
b1010 D
b1010 N
b1010 _
b1010 a
b1011 `
1*
#240
0*
b11000 +
b11000 .
b11000 <
#245
b1111 1
b1111 >
b1111 S
b1000 0
b1000 R
b1000 X
b1000 ^
b1000 Y
b10000 V
b1101 E
b1101 M
b1101 O
b11111111111111111111111111111111 P
b1111 U
b1111 W
b1011 /
b1011 D
b1011 N
b1011 _
b1011 a
b1001 `
1*
#250
0*
b11001 +
b11001 .
b11001 <
0'
#255
b10000 1
b10000 >
b10000 S
b10001 V
b11000 0
b11000 R
b11000 X
b11000 ^
b11000 Y
b1110 E
b1110 M
b1110 O
b11111111111111111111111111111111 P
b10000 U
b10000 W
b1001 /
b1001 D
b1001 N
b1001 _
b1001 a
b1000 `
1*
#260
0*
b11010 +
b11010 .
b11010 <
#265
b10001 1
b10001 >
b10001 S
b11001 0
b11001 R
b11001 X
b11001 ^
b11001 Y
b10010 V
b1111 E
b1111 M
b1111 O
b11111111111111111111111111111111 P
b10001 U
b10001 W
b1000 /
b1000 D
b1000 N
b1000 _
b1000 a
b11000 `
1*
#270
0*
b11011 +
b11011 .
b11011 <
#275
b10010 1
b10010 >
b10010 S
b10011 V
b11011 0
b11011 R
b11011 X
b11011 ^
b11011 Y
b10000 E
b10000 M
b10000 O
b11111111111111111111111111111111 P
b10010 U
b10010 W
b11000 /
b11000 D
b11000 N
b11000 _
b11000 a
b11001 `
1*
1'
#280
0*
b11100 +
b11100 .
b11100 <
#285
b10011 1
b10011 >
b10011 S
b11010 0
b11010 R
b11010 X
b11010 ^
b11010 Y
b10100 V
b10001 E
b10001 M
b10001 O
b11111111111111111111111111111111 P
b10011 U
b10011 W
b11001 /
b11001 D
b11001 N
b11001 _
b11001 a
b11011 `
1*
#290
0*
b11101 +
b11101 .
b11101 <
#295
b10100 1
b10100 >
b10100 S
b10101 V
b11110 0
b11110 R
b11110 X
b11110 ^
b11110 Y
b10010 E
b10010 M
b10010 O
b11111111111111111111111111111111 P
b10100 U
b10100 W
b11011 /
b11011 D
b11011 N
b11011 _
b11011 a
b11010 `
1*
#300
0*
b11110 +
b11110 .
b11110 <
0'
#305
b10101 1
b10101 >
b10101 S
b11111 0
b11111 R
b11111 X
b11111 ^
b11111 Y
b10110 V
b10011 E
b10011 M
b10011 O
b11111111111111111111111111111111 P
b10101 U
b10101 W
b11010 /
b11010 D
b11010 N
b11010 _
b11010 a
b11110 `
1*
#310
0*
b11111 +
b11111 .
b11111 <
#315
b10110 1
b10110 >
b10110 S
b10111 V
b11101 0
b11101 R
b11101 X
b11101 ^
b11101 Y
b10100 E
b10100 M
b10100 O
b11111111111111111111111111111111 P
b10110 U
b10110 W
b11110 /
b11110 D
b11110 N
b11110 _
b11110 a
b11111 `
1*
#320
0*
b100000 +
b100000 .
b100000 <
#325
b10111 1
b10111 >
b10111 S
b11100 0
b11100 R
b11100 X
b11100 ^
b11100 Y
b11000 V
b10101 E
b10101 M
b10101 O
b11111111111111111111111111111111 P
b10111 U
b10111 W
b11111 /
b11111 D
b11111 N
b11111 _
b11111 a
b11101 `
1*
1'
#330
0*
b100001 +
b100001 .
b100001 <
#335
b11000 1
b11000 >
b11000 S
b11001 V
b10100 0
b10100 R
b10100 X
b10100 ^
b10100 Y
b10110 E
b10110 M
b10110 O
b11111111111111111111111111111111 P
b11000 U
b11000 W
b11101 /
b11101 D
b11101 N
b11101 _
b11101 a
b11100 `
1*
#340
0*
b100010 +
b100010 .
b100010 <
#345
b11001 1
b11001 >
b11001 S
b10101 0
b10101 R
b10101 X
b10101 ^
b10101 Y
b11010 V
b10111 E
b10111 M
b10111 O
b11111111111111111111111111111111 P
b11001 U
b11001 W
b11100 /
b11100 D
b11100 N
b11100 _
b11100 a
b10100 `
1*
#350
0*
b100011 +
b100011 .
b100011 <
0'
#355
b11010 1
b11010 >
b11010 S
b11011 V
b10111 0
b10111 R
b10111 X
b10111 ^
b10111 Y
b11000 E
b11000 M
b11000 O
b11111111111111111111111111111111 P
b11010 U
b11010 W
b10100 /
b10100 D
b10100 N
b10100 _
b10100 a
b10101 `
1*
#360
0*
b100100 +
b100100 .
b100100 <
#365
b11011 1
b11011 >
b11011 S
b10110 0
b10110 R
b10110 X
b10110 ^
b10110 Y
b11100 V
b11001 E
b11001 M
b11001 O
b11111111111111111111111111111111 P
b11011 U
b11011 W
b10101 /
b10101 D
b10101 N
b10101 _
b10101 a
b10111 `
1*
#370
0*
b100101 +
b100101 .
b100101 <
#375
b11100 1
b11100 >
b11100 S
b11101 V
b10010 0
b10010 R
b10010 X
b10010 ^
b10010 Y
b11010 E
b11010 M
b11010 O
b11111111111111111111111111111111 P
b11100 U
b11100 W
b10111 /
b10111 D
b10111 N
b10111 _
b10111 a
b10110 `
1*
1'
#380
0*
b100110 +
b100110 .
b100110 <
#385
b11101 1
b11101 >
b11101 S
b10011 0
b10011 R
b10011 X
b10011 ^
b10011 Y
b11110 V
b11011 E
b11011 M
b11011 O
b11111111111111111111111111111111 P
b11101 U
b11101 W
b10110 /
b10110 D
b10110 N
b10110 _
b10110 a
b10010 `
1*
#390
0*
b100111 +
b100111 .
b100111 <
#395
b11110 1
b11110 >
b11110 S
b11111 V
b10001 0
b10001 R
b10001 X
b10001 ^
b10001 Y
b11100 E
b11100 M
b11100 O
b11111111111111111111111111111111 P
b11110 U
b11110 W
b10010 /
b10010 D
b10010 N
b10010 _
b10010 a
b10011 `
1*
#400
0*
b101000 +
b101000 .
b101000 <
0'
#405
b11111 1
b11111 >
b11111 S
b10000 0
b10000 R
b10000 X
b10000 ^
b10000 Y
b100000 V
b11101 E
b11101 M
b11101 O
b11111111111111111111111111111111 P
b11111 U
b11111 W
b10011 /
b10011 D
b10011 N
b10011 _
b10011 a
b10001 `
1*
#410
0*
b101001 +
b101001 .
b101001 <
#415
b100000 1
b100000 >
b100000 S
b100001 V
b110000 0
b110000 R
b110000 X
b110000 ^
b110000 Y
b11110 E
b11110 M
b11110 O
b11111111111111111111111111111111 P
b100000 U
b100000 W
b10001 /
b10001 D
b10001 N
b10001 _
b10001 a
b10000 `
1*
#420
0*
b101010 +
b101010 .
b101010 <
#425
b100001 1
b100001 >
b100001 S
b110001 0
b110001 R
b110001 X
b110001 ^
b110001 Y
b100010 V
b11111 E
b11111 M
b11111 O
b11111111111111111111111111111111 P
b100001 U
b100001 W
b10000 /
b10000 D
b10000 N
b10000 _
b10000 a
b110000 `
1*
1'
#430
0*
b101011 +
b101011 .
b101011 <
#435
b100010 1
b100010 >
b100010 S
b100011 V
b110011 0
b110011 R
b110011 X
b110011 ^
b110011 Y
b100000 E
b100000 M
b100000 O
b11111111111111111111111111111111 P
b100010 U
b100010 W
b110000 /
b110000 D
b110000 N
b110000 _
b110000 a
b110001 `
1*
#440
0*
b101100 +
b101100 .
b101100 <
#445
b100011 1
b100011 >
b100011 S
b110010 0
b110010 R
b110010 X
b110010 ^
b110010 Y
b100100 V
b100001 E
b100001 M
b100001 O
b11111111111111111111111111111111 P
b100011 U
b100011 W
b110001 /
b110001 D
b110001 N
b110001 _
b110001 a
b110011 `
1*
#450
0*
b101101 +
b101101 .
b101101 <
0'
#455
b100100 1
b100100 >
b100100 S
b100101 V
b110110 0
b110110 R
b110110 X
b110110 ^
b110110 Y
b100010 E
b100010 M
b100010 O
b11111111111111111111111111111111 P
b100100 U
b100100 W
b110011 /
b110011 D
b110011 N
b110011 _
b110011 a
b110010 `
1*
#460
0*
b101110 +
b101110 .
b101110 <
#465
b100101 1
b100101 >
b100101 S
b110111 0
b110111 R
b110111 X
b110111 ^
b110111 Y
b100110 V
b100011 E
b100011 M
b100011 O
b11111111111111111111111111111111 P
b100101 U
b100101 W
b110010 /
b110010 D
b110010 N
b110010 _
b110010 a
b110110 `
1*
#470
0*
b101111 +
b101111 .
b101111 <
#475
b100110 1
b100110 >
b100110 S
b100111 V
b110101 0
b110101 R
b110101 X
b110101 ^
b110101 Y
b100100 E
b100100 M
b100100 O
b11111111111111111111111111111111 P
b100110 U
b100110 W
b110110 /
b110110 D
b110110 N
b110110 _
b110110 a
b110111 `
1*
1'
#480
0*
b110000 +
b110000 .
b110000 <
#485
b100111 1
b100111 >
b100111 S
b110100 0
b110100 R
b110100 X
b110100 ^
b110100 Y
b101000 V
b100101 E
b100101 M
b100101 O
b11111111111111111111111111111111 P
b100111 U
b100111 W
b110111 /
b110111 D
b110111 N
b110111 _
b110111 a
b110101 `
1*
#490
0*
b110001 +
b110001 .
b110001 <
#495
b101000 1
b101000 >
b101000 S
b101001 V
b111100 0
b111100 R
b111100 X
b111100 ^
b111100 Y
b100110 E
b100110 M
b100110 O
b11111111111111111111111111111111 P
b101000 U
b101000 W
b110101 /
b110101 D
b110101 N
b110101 _
b110101 a
b110100 `
1*
#500
0*
b110010 +
b110010 .
b110010 <
0'
#505
b101001 1
b101001 >
b101001 S
b111101 0
b111101 R
b111101 X
b111101 ^
b111101 Y
b101010 V
b100111 E
b100111 M
b100111 O
b11111111111111111111111111111111 P
b101001 U
b101001 W
b110100 /
b110100 D
b110100 N
b110100 _
b110100 a
b111100 `
1*
#510
0*
b110011 +
b110011 .
b110011 <
#515
b101010 1
b101010 >
b101010 S
b101011 V
b111111 0
b111111 R
b111111 X
b111111 ^
b111111 Y
b101000 E
b101000 M
b101000 O
b11111111111111111111111111111111 P
b101010 U
b101010 W
b111100 /
b111100 D
b111100 N
b111100 _
b111100 a
b111101 `
1*
#520
0*
b110100 +
b110100 .
b110100 <
#525
b101011 1
b101011 >
b101011 S
b111110 0
b111110 R
b111110 X
b111110 ^
b111110 Y
b101100 V
b101001 E
b101001 M
b101001 O
b11111111111111111111111111111111 P
b101011 U
b101011 W
b111101 /
b111101 D
b111101 N
b111101 _
b111101 a
b111111 `
1*
1'
#530
0*
b110101 +
b110101 .
b110101 <
#535
b101100 1
b101100 >
b101100 S
b101101 V
b111010 0
b111010 R
b111010 X
b111010 ^
b111010 Y
b101010 E
b101010 M
b101010 O
b11111111111111111111111111111111 P
b101100 U
b101100 W
b111111 /
b111111 D
b111111 N
b111111 _
b111111 a
b111110 `
1*
#540
0*
b110110 +
b110110 .
b110110 <
#545
b101101 1
b101101 >
b101101 S
b111011 0
b111011 R
b111011 X
b111011 ^
b111011 Y
b101110 V
b101011 E
b101011 M
b101011 O
b11111111111111111111111111111111 P
b101101 U
b101101 W
b111110 /
b111110 D
b111110 N
b111110 _
b111110 a
b111010 `
1*
#550
0*
b110111 +
b110111 .
b110111 <
0'
#555
b101110 1
b101110 >
b101110 S
b101111 V
b111001 0
b111001 R
b111001 X
b111001 ^
b111001 Y
b101100 E
b101100 M
b101100 O
b11111111111111111111111111111111 P
b101110 U
b101110 W
b111010 /
b111010 D
b111010 N
b111010 _
b111010 a
b111011 `
1*
#560
0*
b111000 +
b111000 .
b111000 <
#565
b101111 1
b101111 >
b101111 S
b111000 0
b111000 R
b111000 X
b111000 ^
b111000 Y
b110000 V
b101101 E
b101101 M
b101101 O
b11111111111111111111111111111111 P
b101111 U
b101111 W
b111011 /
b111011 D
b111011 N
b111011 _
b111011 a
b111001 `
1*
#570
0*
b111001 +
b111001 .
b111001 <
#575
b110000 1
b110000 >
b110000 S
b110001 V
b101000 0
b101000 R
b101000 X
b101000 ^
b101000 Y
b101110 E
b101110 M
b101110 O
b11111111111111111111111111111111 P
b110000 U
b110000 W
b111001 /
b111001 D
b111001 N
b111001 _
b111001 a
b111000 `
1*
1'
#580
0*
b111010 +
b111010 .
b111010 <
#585
b110001 1
b110001 >
b110001 S
b101001 0
b101001 R
b101001 X
b101001 ^
b101001 Y
b110010 V
b101111 E
b101111 M
b101111 O
b11111111111111111111111111111111 P
b110001 U
b110001 W
b111000 /
b111000 D
b111000 N
b111000 _
b111000 a
b101000 `
1*
#590
0*
b111011 +
b111011 .
b111011 <
#595
b110010 1
b110010 >
b110010 S
b110011 V
b101011 0
b101011 R
b101011 X
b101011 ^
b101011 Y
b110000 E
b110000 M
b110000 O
b11111111111111111111111111111111 P
b110010 U
b110010 W
b101000 /
b101000 D
b101000 N
b101000 _
b101000 a
b101001 `
1*
#600
0*
b111100 +
b111100 .
b111100 <
0'
#605
b110011 1
b110011 >
b110011 S
b101010 0
b101010 R
b101010 X
b101010 ^
b101010 Y
b110100 V
b110001 E
b110001 M
b110001 O
b11111111111111111111111111111111 P
b110011 U
b110011 W
b101001 /
b101001 D
b101001 N
b101001 _
b101001 a
b101011 `
1*
#610
0*
b111101 +
b111101 .
b111101 <
#615
b110100 1
b110100 >
b110100 S
b110101 V
b101110 0
b101110 R
b101110 X
b101110 ^
b101110 Y
b110010 E
b110010 M
b110010 O
b11111111111111111111111111111111 P
b110100 U
b110100 W
b101011 /
b101011 D
b101011 N
b101011 _
b101011 a
b101010 `
1*
#620
0*
b111110 +
b111110 .
b111110 <
#625
b110101 1
b110101 >
b110101 S
b101111 0
b101111 R
b101111 X
b101111 ^
b101111 Y
b110110 V
b110011 E
b110011 M
b110011 O
b11111111111111111111111111111111 P
b110101 U
b110101 W
b101010 /
b101010 D
b101010 N
b101010 _
b101010 a
b101110 `
1*
1'
#630
0*
b111111 +
b111111 .
b111111 <
#635
b110110 1
b110110 >
b110110 S
b110111 V
b101101 0
b101101 R
b101101 X
b101101 ^
b101101 Y
b110100 E
b110100 M
b110100 O
b11111111111111111111111111111111 P
b110110 U
b110110 W
b101110 /
b101110 D
b101110 N
b101110 _
b101110 a
b101111 `
1*
#640
0*
b1000000 +
b1000000 .
b1000000 <
#645
b110111 1
b110111 >
b110111 S
b101100 0
b101100 R
b101100 X
b101100 ^
b101100 Y
b111000 V
b110101 E
b110101 M
b110101 O
b11111111111111111111111111111111 P
b110111 U
b110111 W
b101111 /
b101111 D
b101111 N
b101111 _
b101111 a
b101101 `
1*
#650
0*
b1000001 +
b1000001 .
b1000001 <
0'
#655
b111000 1
b111000 >
b111000 S
b111001 V
b100100 0
b100100 R
b100100 X
b100100 ^
b100100 Y
b110110 E
b110110 M
b110110 O
b11111111111111111111111111111111 P
b111000 U
b111000 W
b101101 /
b101101 D
b101101 N
b101101 _
b101101 a
b101100 `
1*
#660
0*
b1000010 +
b1000010 .
b1000010 <
#665
b111001 1
b111001 >
b111001 S
b100101 0
b100101 R
b100101 X
b100101 ^
b100101 Y
b111010 V
b110111 E
b110111 M
b110111 O
b11111111111111111111111111111111 P
b111001 U
b111001 W
b101100 /
b101100 D
b101100 N
b101100 _
b101100 a
b100100 `
1*
#670
0*
b1000011 +
b1000011 .
b1000011 <
#675
b111010 1
b111010 >
b111010 S
b111011 V
b100111 0
b100111 R
b100111 X
b100111 ^
b100111 Y
b111000 E
b111000 M
b111000 O
b11111111111111111111111111111111 P
b111010 U
b111010 W
b100100 /
b100100 D
b100100 N
b100100 _
b100100 a
b100101 `
1*
1'
#680
0*
b1000100 +
b1000100 .
b1000100 <
#685
b111011 1
b111011 >
b111011 S
b100110 0
b100110 R
b100110 X
b100110 ^
b100110 Y
b111100 V
b111001 E
b111001 M
b111001 O
b11111111111111111111111111111111 P
b111011 U
b111011 W
b100101 /
b100101 D
b100101 N
b100101 _
b100101 a
b100111 `
1*
#690
0*
b1000101 +
b1000101 .
b1000101 <
#695
b111100 1
b111100 >
b111100 S
b111101 V
b100010 0
b100010 R
b100010 X
b100010 ^
b100010 Y
b111010 E
b111010 M
b111010 O
b11111111111111111111111111111111 P
b111100 U
b111100 W
b100111 /
b100111 D
b100111 N
b100111 _
b100111 a
b100110 `
1*
#700
0*
b1000110 +
b1000110 .
b1000110 <
0'
#705
b111101 1
b111101 >
b111101 S
b100011 0
b100011 R
b100011 X
b100011 ^
b100011 Y
b111110 V
b111011 E
b111011 M
b111011 O
b11111111111111111111111111111111 P
b111101 U
b111101 W
b100110 /
b100110 D
b100110 N
b100110 _
b100110 a
b100010 `
1*
#710
0*
b1000111 +
b1000111 .
b1000111 <
#715
b111110 1
b111110 >
b111110 S
b111111 V
b100001 0
b100001 R
b100001 X
b100001 ^
b100001 Y
b111100 E
b111100 M
b111100 O
b11111111111111111111111111111111 P
b111110 U
b111110 W
b100010 /
b100010 D
b100010 N
b100010 _
b100010 a
b100011 `
1*
#720
0*
b1001000 +
b1001000 .
b1001000 <
#725
b111111 1
b111111 >
b111111 S
b100000 0
b100000 R
b100000 X
b100000 ^
b100000 Y
b1000000 V
b111101 E
b111101 M
b111101 O
b11111111111111111111111111111111 P
b111111 U
b111111 W
b100011 /
b100011 D
b100011 N
b100011 _
b100011 a
b100001 `
1*
1'
#730
0*
b1001001 +
b1001001 .
b1001001 <
#735
0=
b0 1
b0 >
b0 S
b1000001 V
b1100000 0
b1100000 R
b1100000 X
b1100000 ^
b1100000 Y
b111110 E
b111110 M
b111110 O
b11111111111111111111111111111111 P
b1000000 U
b1000000 W
1!
b100001 /
b100001 D
b100001 N
b100001 _
b100001 a
b100000 `
1*
#740
0*
b1001010 +
b1001010 .
b1001010 <
#745
b111111 E
b111111 M
b111111 O
b11111111111111111111111111111111 P
b100000 /
b100000 D
b100000 N
b100000 _
b100000 a
b1100000 `
1*
#750
0*
b1001011 +
b1001011 .
b1001011 <
0'
#755
b11111111111111111111111111111111 P
b1000000 E
b1000000 M
b1000000 O
b1100000 /
b1100000 D
b1100000 N
b1100000 _
b1100000 a
1*
#760
0*
b1001100 +
b1001100 .
b1001100 <
#765
1*
#770
0*
b1001101 +
b1001101 .
b1001101 <
#775
1*
1'
#780
0*
b1001110 +
b1001110 .
b1001110 <
#785
1*
#790
0*
b1001111 +
b1001111 .
b1001111 <
#795
1*
#800
0*
b1010000 +
b1010000 .
b1010000 <
0'
#805
1*
#810
0*
b1010001 +
b1010001 .
b1010001 <
#815
1*
#820
0*
b1010010 +
b1010010 .
b1010010 <
#825
1*
1'
#830
0*
b1010011 +
b1010011 .
b1010011 <
#835
1*
#840
0*
b1010100 +
b1010100 .
b1010100 <
#845
1*
#850
0*
b1010101 +
b1010101 .
b1010101 <
0'
#855
1*
#860
0*
b1010110 +
b1010110 .
b1010110 <
#865
1*
#870
0*
b1010111 +
b1010111 .
b1010111 <
#875
1*
1'
#880
0*
b1011000 +
b1011000 .
b1011000 <
#885
1*
#890
0*
b1011001 +
b1011001 .
b1011001 <
#895
1*
#900
0*
b1011010 +
b1011010 .
b1011010 <
0'
#905
1*
#910
0*
b1011011 +
b1011011 .
b1011011 <
#915
1*
#920
0*
b1011100 +
b1011100 .
b1011100 <
#925
1*
1'
#930
0*
b1011101 +
b1011101 .
b1011101 <
#935
1*
#940
0*
b1011110 +
b1011110 .
b1011110 <
#945
1*
#950
0*
b1011111 +
b1011111 .
b1011111 <
0'
#955
1*
#960
0*
b1100000 +
b1100000 .
b1100000 <
#965
1*
#970
0*
b1100001 +
b1100001 .
b1100001 <
#975
1*
1'
#980
0*
b1100010 +
b1100010 .
b1100010 <
#985
1*
#990
0*
b1100011 +
b1100011 .
b1100011 <
#995
1*
#1000
0*
b1100100 +
b1100100 .
b1100100 <
0'
#1005
1*
#1010
0*
b1100101 +
b1100101 .
b1100101 <
#1015
1*
#1020
0*
b1100110 +
b1100110 .
b1100110 <
#1025
1*
1'
#1030
0*
b1100111 +
b1100111 .
b1100111 <
#1035
1*
#1040
0*
b1101000 +
b1101000 .
b1101000 <
#1045
1*
#1050
0*
b1101001 +
b1101001 .
b1101001 <
0'
#1055
1*
#1060
0*
b1101010 +
b1101010 .
b1101010 <
#1065
1*
#1070
0*
b1101011 +
b1101011 .
b1101011 <
#1075
1*
1'
#1080
0*
b1101100 +
b1101100 .
b1101100 <
#1085
1*
#1090
0*
b1101101 +
b1101101 .
b1101101 <
#1095
1*
#1100
1;
0*
b1101110 +
b1101110 .
b1101110 <
0'
1(
0,
#1105
1*
#1110
0*
b1101111 +
b1101111 .
b1101111 <
#1115
1*
#1120
0*
b1110000 +
b1110000 .
b1110000 <
#1125
b1 5
b1 ?
b1 G
b1 3
b1 7
b1 F
b1 K
b1 L
b10 I
b1010 #
b1010 4
b1010 :
b1010 B
b1 H
b1 J
1*
1'
#1130
0*
b1110001 +
b1110001 .
b1110001 <
#1135
1*
